{
  "images" : [
    {
      "idiom" : "universal",
      "scale" : "1x",
      "filename" : "w_img_status_male_user2.png"
    },
    {
      "idiom" : "universal",
      "scale" : "2x"
    },
    {
      "idiom" : "universal",
      "scale" : "3x"
    }
  ],
  "info" : {
    "version" : "1",
    "author" : "xcode"
  }
}