{
  "images" : [
    {
      "idiom" : "universal",
      "scale" : "1x"
    },
    {
      "idiom" : "universal",
      "scale" : "2x",
      "filename" : "help_body@2x.png"
    },
    {
      "idiom" : "universal",
      "scale" : "3x",
      "filename" : "help_body@3x.png"
    }
  ],
  "info" : {
    "version" : "1",
    "author" : "xcode"
  }
}